…
```
## filter(): dplyr, stats
## lag():    dplyr, stats
```



```r
as_tibble(iris)
```

```
## # A tibble: 150 × 5
##    Sepal.Length Sepal.Width Petal.Length Petal.Width Species
##           <dbl>       <dbl>        <dbl>       <dbl>  <fctr>
## 1           5.1         3.5          1.4         0.2  setosa
## 2           4.9         3.0          1.4         0.2  setosa
## 3           4.7         3.2          1.3         0.2  setosa
## 4           4.6         3.1          1.5         0.2  setosa
## 5           5.0         3.6          1.4         0.2  setosa
## 6           5.4         3.9          1.7         0.4  setosa
## 7           4.6         3.4          1.4         0.3  setosa
## 8           5.0         3.4          1.5         0.2  setosa
## 9           4.4         2.9          1.4         0.2  setosa
## 10          4.9         3.1          1.5         0.1  setosa
## # ... with 140 more rows
```
…
```r
tibble(
  a = lubridate::now() + runif(1e3) * 86400,
  b = lubridate::today() + runif(1e3) * 30,
  c = 1:1e3,
  d = runif(1e3),
  e = sample(letters, 1e3, replace = TRUE)
)
```

```
## # A tibble: 1,000 × 5
##                      a          b     c           d     e
##                 <dttm>     <date> <int>       <dbl> <chr>
## 1  2017-06-01 09:23:06 2017-06-28     1 0.135694098     u
## 2  2017-05-31 16:48:14 2017-06-02     2 0.342532510     k
## 3  2017-05-31 21:52:34 2017-06-01     3 0.150151187     e
## 4  2017-06-01 00:44:22 2017-06-02     4 0.492995070     r
## 5  2017-05-31 19:41:50 2017-06-17     5 0.777619008     c
## 6  2017-05-31 16:46:06 2017-06-16     6 0.830412717     m
## 7  2017-06-01 09:56:57 2017-06-24     7 0.001147624     a
## 8  2017-06-01 02:27:21 2017-06-04     8 0.255396205     d
## 9  2017-06-01 05:17:36 2017-06-19     9 0.240934457     r
## 10 2017-06-01 05:12:51 2017-06-04    10 0.493902588     v
## # ... with 990 more rows
```
…
```
##  [1] 21.0 21.0 22.8 21.4 18.7 18.1 14.3 24.4 22.8 19.2 17.8 16.4 17.3 15.2
## [15] 10.4 10.4 14.7 32.4 30.4 33.9 21.5 15.5 15.2 13.3 19.2 27.3 26.0 30.4
## [29] 15.8 19.7 15.0 21.4
```

```r
mtcars %>% as_tibble() %>% .[vars]
```

```
## # A tibble: 32 × 1
##      mpg
##    <dbl>
## 1   21.0
## 2   21.0
## 3   22.8
## 4   21.4
## 5   18.7
## 6   18.1
## 7   14.3
## 8   24.4
## 9   22.8
## 10  19.2
## # ... with 22 more rows
```
…
