…
```r
library(ggplot2)
```



```r
flights
```

```
## # A tibble: 336,776 × 19
##     year month   day dep_time sched_dep_time dep_delay arr_time
##    <int> <int> <int>    <int>          <int>     <dbl>    <int>
## 1   2013     1     1      517            515         2      830
## 2   2013     1     1      533            529         4      850
## 3   2013     1     1      542            540         2      923
## 4   2013     1     1      544            545        -1     1004
## 5   2013     1     1      554            600        -6      812
## 6   2013     1     1      554            558        -4      740
## 7   2013     1     1      555            600        -5      913
## 8   2013     1     1      557            600        -3      709
## 9   2013     1     1      557            600        -3      838
## 10  2013     1     1      558            600        -2      753
## # ... with 336,766 more rows, and 12 more variables: sched_arr_time <int>,
## #   arr_delay <dbl>, carrier <chr>, flight <int>, tailnum <chr>,
## #   origin <chr>, dest <chr>, air_time <dbl>, distance <dbl>, hour <dbl>,
## #   minute <dbl>, time_hour <dttm>
```




```r
filter(flights, month == 1, day == 1)
```

```
## # A tibble: 842 × 19
##     year month   day dep_time sched_dep_time dep_delay arr_time
##    <int> <int> <int>    <int>          <int>     <dbl>    <int>
## 1   2013     1     1      517            515         2      830
## 2   2013     1     1      533            529         4      850
## 3   2013     1     1      542            540         2      923
## 4   2013     1     1      544            545        -1     1004
## 5   2013     1     1      554            600        -6      812
## 6   2013     1     1      554            558        -4      740
## 7   2013     1     1      555            600        -5      913
## 8   2013     1     1      557            600        -3      709
## 9   2013     1     1      557            600        -3      838
## 10  2013     1     1      558            600        -2      753
## # ... with 832 more rows, and 12 more variables: sched_arr_time <int>,
## #   arr_delay <dbl>, carrier <chr>, flight <int>, tailnum <chr>,
## #   origin <chr>, dest <chr>, air_time <dbl>, distance <dbl>, hour <dbl>,
## #   minute <dbl>, time_hour <dttm>
```




```r
jan1 <- filter(flights, month == 1, day == 1)

(dec25 <- filter(flights, month == 12, day == 25))
```

```
## # A tibble: 719 × 19
##     year month   day dep_time sched_dep_time dep_delay arr_time
##    <int> <int> <int>    <int>          <int>     <dbl>    <int>
## 1   2013    12    25      456            500        -4      649
## 2   2013    12    25      524            515         9      805
## 3   2013    12    25      542            540         2      832
## 4   2013    12    25      546            550        -4     1022
## 5   2013    12    25      556            600        -4      730
## 6   2013    12    25      557            600        -3      743
## 7   2013    12    25      557            600        -3      818
## 8   2013    12    25      559            600        -1      855
## 9   2013    12    25      559            600        -1      849
## 10  2013    12    25      600            600         0      850
## # ... with 709 more rows, and 12 more variables: sched_arr_time <int>,
## #   arr_delay <dbl>, carrier <chr>, flight <int>, tailnum <chr>,
## #   origin <chr>, dest <chr>, air_time <dbl>, distance <dbl>, hour <dbl>,
## #   minute <dbl>, time_hour <dttm>
```
…
#### Exercise 5.2.4

##### question 1 

```r
#arrival delay 2 or more hours
filter(flights, arr_delay >= 120)
```

```
## # A tibble: 10,200 × 19
##     year month   day dep_time sched_dep_time dep_delay arr_time
##    <int> <int> <int>    <int>          <int>     <dbl>    <int>
## 1   2013     1     1      811            630       101     1047
## 2   2013     1     1      848           1835       853     1001
## 3   2013     1     1      957            733       144     1056
## 4   2013     1     1     1114            900       134     1447
## 5   2013     1     1     1505           1310       115     1638
## 6   2013     1     1     1525           1340       105     1831
## 7   2013     1     1     1549           1445        64     1912
## 8   2013     1     1     1558           1359       119     1718
## 9   2013     1     1     1732           1630        62     2028
## 10  2013     1     1     1803           1620       103     2008
## # ... with 10,190 more rows, and 12 more variables: sched_arr_time <int>,
## #   arr_delay <dbl>, carrier <chr>, flight <int>, tailnum <chr>,
## #   origin <chr>, dest <chr>, air_time <dbl>, distance <dbl>, hour <dbl>,
## #   minute <dbl>, time_hour <dttm>
```

```r
#flew to Houston (IAH or HOU)
filter(flights, dest == "IAH" | dest == "HOU")
```

```
## # A tibble: 9,313 × 19
##     year month   day dep_time sched_dep_time dep_delay arr_time
##    <int> <int> <int>    <int>          <int>     <dbl>    <int>
## 1   2013     1     1      517            515         2      830
## 2   2013     1     1      533            529         4      850
## 3   2013     1     1      623            627        -4      933
## 4   2013     1     1      728            732        -4     1041
## 5   2013     1     1      739            739         0     1104
## 6   2013     1     1      908            908         0     1228
## 7   2013     1     1     1028           1026         2     1350
## 8   2013     1     1     1044           1045        -1     1352
## 9   2013     1     1     1114            900       134     1447
## 10  2013     1     1     1205           1200         5     1503
## # ... with 9,303 more rows, and 12 more variables: sched_arr_time <int>,
## #   arr_delay <dbl>, carrier <chr>, flight <int>, tailnum <chr>,
## #   origin <chr>, dest <chr>, air_time <dbl>, distance <dbl>, hour <dbl>,
## #   minute <dbl>, time_hour <dttm>
```

```r
#Were operated by United, American, or Delta
filter(flights, carrier == "UA" | carrier == "AA" | carrier == "DL")
```

```
## # A tibble: 139,504 × 19
##     year month   day dep_time sched_dep_time dep_delay arr_time
##    <int> <int> <int>    <int>          <int>     <dbl>    <int>
## 1   2013     1     1      517            515         2      830
## 2   2013     1     1      533            529         4      850
## 3   2013     1     1      542            540         2      923
## 4   2013     1     1      554            600        -6      812
## 5   2013     1     1      554            558        -4      740
## 6   2013     1     1      558            600        -2      753
## 7   2013     1     1      558            600        -2      924
## 8   2013     1     1      558            600        -2      923
## 9   2013     1     1      559            600        -1      941
## 10  2013     1     1      559            600        -1      854
## # ... with 139,494 more rows, and 12 more variables: sched_arr_time <int>,
## #   arr_delay <dbl>, carrier <chr>, flight <int>, tailnum <chr>,
## #   origin <chr>, dest <chr>, air_time <dbl>, distance <dbl>, hour <dbl>,
## #   minute <dbl>, time_hour <dttm>
```

```r
#Departed in summer (July, August, and September)
filter(flights, month == 7 | month == 8 | month == 9)
```

```
## # A tibble: 86,326 × 19
##     year month   day dep_time sched_dep_time dep_delay arr_time
##    <int> <int> <int>    <int>          <int>     <dbl>    <int>
## 1   2013     7     1        1           2029       212      236
## 2   2013     7     1        2           2359         3      344
## 3   2013     7     1       29           2245       104      151
## 4   2013     7     1       43           2130       193      322
## 5   2013     7     1       44           2150       174      300
## 6   2013     7     1       46           2051       235      304
## 7   2013     7     1       48           2001       287      308
## 8   2013     7     1       58           2155       183      335
## 9   2013     7     1      100           2146       194      327
## 10  2013     7     1      100           2245       135      337
## # ... with 86,316 more rows, and 12 more variables: sched_arr_time <int>,
## #   arr_delay <dbl>, carrier <chr>, flight <int>, tailnum <chr>,
## #   origin <chr>, dest <chr>, air_time <dbl>, distance <dbl>, hour <dbl>,
## #   minute <dbl>, time_hour <dttm>
```
…
```r
#Were delayed by at least an hour, but made up over 30 minutes in flight
filter(flights, dep_delay >= 60 & arr_delay <= 30) 
```

```
## # A tibble: 239 × 19
##     year month   day dep_time sched_dep_time dep_delay arr_time
##    <int> <int> <int>    <int>          <int>     <dbl>    <int>
## 1   2013     1     3     1850           1745        65     2148
## 2   2013     1     3     1950           1845        65     2228
## 3   2013     1     3     2015           1915        60     2135
## 4   2013     1     6     1019            900        79     1558
## 5   2013     1     7     1543           1430        73     1758
## 6   2013     1    11     1020            920        60     1311
## 7   2013     1    12     1706           1600        66     1949
## 8   2013     1    12     1953           1845        68     2154
## 9   2013     1    19     1456           1355        61     1636
## 10  2013     1    21     1531           1430        61     1843
## # ... with 229 more rows, and 12 more variables: sched_arr_time <int>,
## #   arr_delay <dbl>, carrier <chr>, flight <int>, tailnum <chr>,
## #   origin <chr>, dest <chr>, air_time <dbl>, distance <dbl>, hour <dbl>,
## #   minute <dbl>, time_hour <dttm>
```

```r
#Departed between midnight and 6am (inclusive)
filter(flights, dep_time >= 0 & dep_time <= 600)
```

```
## # A tibble: 9,344 × 19
##     year month   day dep_time sched_dep_time dep_delay arr_time
##    <int> <int> <int>    <int>          <int>     <dbl>    <int>
## 1   2013     1     1      517            515         2      830
## 2   2013     1     1      533            529         4      850
## 3   2013     1     1      542            540         2      923
## 4   2013     1     1      544            545        -1     1004
## 5   2013     1     1      554            600        -6      812
## 6   2013     1     1      554            558        -4      740
## 7   2013     1     1      555            600        -5      913
## 8   2013     1     1      557            600        -3      709
## 9   2013     1     1      557            600        -3      838
## 10  2013     1     1      558            600        -2      753
## # ... with 9,334 more rows, and 12 more variables: sched_arr_time <int>,
## #   arr_delay <dbl>, carrier <chr>, flight <int>, tailnum <chr>,
## #   origin <chr>, dest <chr>, air_time <dbl>, distance <dbl>, hour <dbl>,
## #   minute <dbl>, time_hour <dttm>
```


##### question 2


```r
?between()

filter(flights, between(flights$dep_time, 0, 600))
```

```
## # A tibble: 9,344 × 19
##     year month   day dep_time sched_dep_time dep_delay arr_time
##    <int> <int> <int>    <int>          <int>     <dbl>    <int>
## 1   2013     1     1      517            515         2      830
## 2   2013     1     1      533            529         4      850
## 3   2013     1     1      542            540         2      923
## 4   2013     1     1      544            545        -1     1004
## 5   2013     1     1      554            600        -6      812
## 6   2013     1     1      554            558        -4      740
## 7   2013     1     1      555            600        -5      913
## 8   2013     1     1      557            600        -3      709
## 9   2013     1     1      557            600        -3      838
## 10  2013     1     1      558            600        -2      753
## # ... with 9,334 more rows, and 12 more variables: sched_arr_time <int>,
## #   arr_delay <dbl>, carrier <chr>, flight <int>, tailnum <chr>,
## #   origin <chr>, dest <chr>, air_time <dbl>, distance <dbl>, hour <dbl>,
## #   minute <dbl>, time_hour <dttm>
```

Between takes values inclusive of two boundary values. ie x >= left & x <= right, yes you can use it to simplify part 7 of question 1.


##### question 3



```r
filter(flights, is.na(dep_time))
```

```
## # A tibble: 8,255 × 19
##     year month   day dep_time sched_dep_time dep_delay arr_time
##    <int> <int> <int>    <int>          <int>     <dbl>    <int>
## 1   2013     1     1       NA           1630        NA       NA
## 2   2013     1     1       NA           1935        NA       NA
## 3   2013     1     1       NA           1500        NA       NA
## 4   2013     1     1       NA            600        NA       NA
## 5   2013     1     2       NA           1540        NA       NA
## 6   2013     1     2       NA           1620        NA       NA
## 7   2013     1     2       NA           1355        NA       NA
## 8   2013     1     2       NA           1420        NA       NA
## 9   2013     1     2       NA           1321        NA       NA
## 10  2013     1     2       NA           1545        NA       NA
## # ... with 8,245 more rows, and 12 more variables: sched_arr_time <int>,
## #   arr_delay <dbl>, carrier <chr>, flight <int>, tailnum <chr>,
## #   origin <chr>, dest <chr>, air_time <dbl>, distance <dbl>, hour <dbl>,
## #   minute <dbl>, time_hour <dttm>
```
…
NA....


### Exercise 5.3.1

##### question 2


```r
arrange(flights, desc(is.na(flights$dep_time)))
```

```
## # A tibble: 336,776 × 19
##     year month   day dep_time sched_dep_time dep_delay arr_time
##    <int> <int> <int>    <int>          <int>     <dbl>    <int>
## 1   2013     1     1       NA           1630        NA       NA
## 2   2013     1     1       NA           1935        NA       NA
## 3   2013     1     1       NA           1500        NA       NA
## 4   2013     1     1       NA            600        NA       NA
## 5   2013     1     2       NA           1540        NA       NA
## 6   2013     1     2       NA           1620        NA       NA
## 7   2013     1     2       NA           1355        NA       NA
## 8   2013     1     2       NA           1420        NA       NA
## 9   2013     1     2       NA           1321        NA       NA
## 10  2013     1     2       NA           1545        NA       NA
## # ... with 336,766 more rows, and 12 more variables: sched_arr_time <int>,
## #   arr_delay <dbl>, carrier <chr>, flight <int>, tailnum <chr>,
## #   origin <chr>, dest <chr>, air_time <dbl>, distance <dbl>, hour <dbl>,
## #   minute <dbl>, time_hour <dttm>
```


##### question 2


```r
# most delayed flights
arrange(flights, desc(dep_delay))
```

```
## # A tibble: 336,776 × 19
##     year month   day dep_time sched_dep_time dep_delay arr_time
##    <int> <int> <int>    <int>          <int>     <dbl>    <int>
## 1   2013     1     9      641            900      1301     1242
## 2   2013     6    15     1432           1935      1137     1607
## 3   2013     1    10     1121           1635      1126     1239
## 4   2013     9    20     1139           1845      1014     1457
## 5   2013     7    22      845           1600      1005     1044
## 6   2013     4    10     1100           1900       960     1342
## 7   2013     3    17     2321            810       911      135
## 8   2013     6    27      959           1900       899     1236
## 9   2013     7    22     2257            759       898      121
## 10  2013    12     5      756           1700       896     1058
## # ... with 336,766 more rows, and 12 more variables: sched_arr_time <int>,
## #   arr_delay <dbl>, carrier <chr>, flight <int>, tailnum <chr>,
## #   origin <chr>, dest <chr>, air_time <dbl>, distance <dbl>, hour <dbl>,
## #   minute <dbl>, time_hour <dttm>
```

```r
# ealiest leaving
arrange(flights, dep_time)
```

```
## # A tibble: 336,776 × 19
##     year month   day dep_time sched_dep_time dep_delay arr_time
##    <int> <int> <int>    <int>          <int>     <dbl>    <int>
## 1   2013     1    13        1           2249        72      108
## 2   2013     1    31        1           2100       181      124
## 3   2013    11    13        1           2359         2      442
## 4   2013    12    16        1           2359         2      447
## 5   2013    12    20        1           2359         2      430
## 6   2013    12    26        1           2359         2      437
## 7   2013    12    30        1           2359         2      441
## 8   2013     2    11        1           2100       181      111
## 9   2013     2    24        1           2245        76      121
## 10  2013     3     8        1           2355         6      431
## # ... with 336,766 more rows, and 12 more variables: sched_arr_time <int>,
## #   arr_delay <dbl>, carrier <chr>, flight <int>, tailnum <chr>,
## #   origin <chr>, dest <chr>, air_time <dbl>, distance <dbl>, hour <dbl>,
## #   minute <dbl>, time_hour <dttm>
```


##### question 3


```r
# fastest flights

arrange(flights, air_time)
```

```
## # A tibble: 336,776 × 19
##     year month   day dep_time sched_dep_time dep_delay arr_time
##    <int> <int> <int>    <int>          <int>     <dbl>    <int>
## 1   2013     1    16     1355           1315        40     1442
## 2   2013     4    13      537            527        10      622
## 3   2013    12     6      922            851        31     1021
## 4   2013     2     3     2153           2129        24     2247
## 5   2013     2     5     1303           1315       -12     1342
## 6   2013     2    12     2123           2130        -7     2211
## 7   2013     3     2     1450           1500       -10     1547
## 8   2013     3     8     2026           1935        51     2131
## 9   2013     3    18     1456           1329        87     1533
## 10  2013     3    19     2226           2145        41     2305
## # ... with 336,766 more rows, and 12 more variables: sched_arr_time <int>,
## #   arr_delay <dbl>, carrier <chr>, flight <int>, tailnum <chr>,
## #   origin <chr>, dest <chr>, air_time <dbl>, distance <dbl>, hour <dbl>,
## #   minute <dbl>, time_hour <dttm>
```

##### question 4


```r
# farthest distance
arrange(flights, distance)
```

```
## # A tibble: 336,776 × 19
##     year month   day dep_time sched_dep_time dep_delay arr_time
##    <int> <int> <int>    <int>          <int>     <dbl>    <int>
## 1   2013     7    27       NA            106        NA       NA
## 2   2013     1     3     2127           2129        -2     2222
## 3   2013     1     4     1240           1200        40     1333
## 4   2013     1     4     1829           1615       134     1937
## 5   2013     1     4     2128           2129        -1     2218
## 6   2013     1     5     1155           1200        -5     1241
## 7   2013     1     6     2125           2129        -4     2224
## 8   2013     1     7     2124           2129        -5     2212
## 9   2013     1     8     2127           2130        -3     2304
## 10  2013     1     9     2126           2129        -3     2217
## # ... with 336,766 more rows, and 12 more variables: sched_arr_time <int>,
## #   arr_delay <dbl>, carrier <chr>, flight <int>, tailnum <chr>,
## #   origin <chr>, dest <chr>, air_time <dbl>, distance <dbl>, hour <dbl>,
## #   minute <dbl>, time_hour <dttm>
```
…
